R for data handling, visualisation and reporting
…
```r
data <- read_csv("randomdata.csv")
```
]

.bottom[

```r
data
```

```
## # A tibble: 14,352 x 7
##        X SubjID Site  Task   Congruency    RT   Acc
##    <dbl> <chr>  <chr> <chr>  <chr>      <dbl> <dbl>
##  1 11247 p64    ffa   object cong        907.     0
##  2  9908 p59    lo    object incong      737.     0
##  3 13723 p72    lo    object cong        635.     0
##  4  4440 P16    ffa   face   incong      529.     1
##  5  4874 P17    lo    face   cong       1011.     0
##  6 12645 p68    lo    object cong       1124.     0
##  7  5755 P20    ffa   face   cong        883.     1
##  8  4104 P15    ffa   face   cong        731.     0
##  9 13762 p73    ffa   object incong      919.     1
## 10 13461 p72    ffa   object cong        990.     0
## # … with 14,342 more rows
```
…
---

class: split-40
count: false

.column[.content[

```r
data  #<<
```
]]
.column[.content.center[

```
## # A tibble: 14,352 x 7
##        X SubjID Site  Task   Congruency    RT   Acc
##    <dbl> <chr>  <chr> <chr>  <chr>      <dbl> <dbl>
##  1 11247 p64    ffa   object cong        907.     0
##  2  9908 p59    lo    object incong      737.     0
##  3 13723 p72    lo    object cong        635.     0
##  4  4440 P16    ffa   face   incong      529.     1
##  5  4874 P17    lo    face   cong       1011.     0
##  6 12645 p68    lo    object cong       1124.     0
##  7  5755 P20    ffa   face   cong        883.     1
##  8  4104 P15    ffa   face   cong        731.     0
##  9 13762 p73    ffa   object incong      919.     1
## 10 13461 p72    ffa   object cong        990.     0
## # … with 14,342 more rows
```
…
.column[.content[

```r
data %>% 
  select(-X)  #<<
```
]]
.column[.content.center[

```
## # A tibble: 14,352 x 6
##    SubjID Site  Task   Congruency    RT   Acc
##    <chr>  <chr> <chr>  <chr>      <dbl> <dbl>
##  1 p64    ffa   object cong        907.     0
##  2 p59    lo    object incong      737.     0
##  3 p72    lo    object cong        635.     0
##  4 P16    ffa   face   incong      529.     1
##  5 P17    lo    face   cong       1011.     0
##  6 p68    lo    object cong       1124.     0
##  7 P20    ffa   face   cong        883.     1
##  8 P15    ffa   face   cong        731.     0
##  9 p73    ffa   object incong      919.     1
## 10 p72    ffa   object cong        990.     0
## # … with 14,342 more rows
```
…
.column[.content[

```r
data %>% 
  select(-X) %>% 
  rename(Experiment = Task)  #<<
```
]]
.column[.content.center[

```
## # A tibble: 14,352 x 6
##    SubjID Site  Experiment Congruency    RT   Acc
##    <chr>  <chr> <chr>      <chr>      <dbl> <dbl>
##  1 p64    ffa   object     cong        907.     0
##  2 p59    lo    object     incong      737.     0
##  3 p72    lo    object     cong        635.     0
##  4 P16    ffa   face       incong      529.     1
##  5 P17    lo    face       cong       1011.     0
##  6 p68    lo    object     cong       1124.     0
##  7 P20    ffa   face       cong        883.     1
##  8 P15    ffa   face       cong        731.     0
##  9 p73    ffa   object     incong      919.     1
## 10 p72    ffa   object     cong        990.     0
## # … with 14,342 more rows
```
…
.column[.content[

```r
data %>% 
  select(-X) %>% 
  rename(Experiment = Task) %>% 
  filter(!SubjID %in% c("P19","P01","p58","p63"))  #<<
```
]]
.column[.content.center[

```
## # A tibble: 13,104 x 6
##    SubjID Site  Experiment Congruency    RT   Acc
##    <chr>  <chr> <chr>      <chr>      <dbl> <dbl>
##  1 p64    ffa   object     cong        907.     0
##  2 p59    lo    object     incong      737.     0
##  3 p72    lo    object     cong        635.     0
##  4 P16    ffa   face       incong      529.     1
##  5 P17    lo    face       cong       1011.     0
##  6 p68    lo    object     cong       1124.     0
##  7 P20    ffa   face       cong        883.     1
##  8 P15    ffa   face       cong        731.     0
##  9 p73    ffa   object     incong      919.     1
## 10 p72    ffa   object     cong        990.     0
## # … with 13,094 more rows
```
…
.column[.content[

```r
data %>% 
  select(-X) %>% 
  rename(Experiment = Task) %>% 
  filter(!SubjID %in% c("P19","P01","p58","p63")) %>% 
  group_by(SubjID, Experiment, Site, Congruency) %>%   #<<
  summarise(meanRT = mean(RT[Acc==1]), meanAcc = mean(Acc))  #<<
```
]]
.column[.content.center[

```
## # A tibble: 168 x 6
## # Groups:   SubjID, Experiment, Site [84]
##    SubjID Experiment Site  Congruency meanRT meanAcc
##    <chr>  <chr>      <chr> <chr>       <dbl>   <dbl>
##  1 P02    face       ffa   cong         827.   0.52 
##  2 P02    face       ffa   incong       778.   0.452
##  3 P02    face       lo    cong         849.   0.472
##  4 P02    face       lo    incong       959.   0.355
##  5 P03    face       ffa   cong         844.   0.460
##  6 P03    face       ffa   incong       845.   0.433
##  7 P03    face       lo    cong         839.   0.524
##  8 P03    face       lo    incong       838.   0.438
##  9 P04    face       ffa   cong         843.   0.424
## 10 P04    face       ffa   incong       821.   0.516
## # … with 158 more rows
```
…
```r
data %>% 
  select(-X) %>% 
  rename(Experiment = Task) %>% 
  filter(!SubjID %in% c("P19","P01","p58","p63")) %>% 
  group_by(SubjID, Experiment, Site, Congruency) %>%  
  summarise(meanRT = mean(RT[Acc==1]), meanAcc = mean(Acc)) %>%
  mutate(Efficiency = meanRT/meanAcc)  #<<
```
]]
.column[.content.center[

```
## # A tibble: 168 x 7
## # Groups:   SubjID, Experiment, Site [84]
##    SubjID Experiment Site  Congruency meanRT meanAcc Efficiency
##    <chr>  <chr>      <chr> <chr>       <dbl>   <dbl>      <dbl>
##  1 P02    face       ffa   cong         827.   0.52       1591.
##  2 P02    face       ffa   incong       778.   0.452      1723.
##  3 P02    face       lo    cong         849.   0.472      1799.
##  4 P02    face       lo    incong       959.   0.355      2701.
##  5 P03    face       ffa   cong         844.   0.460      1834.
##  6 P03    face       ffa   incong       845.   0.433      1951.
##  7 P03    face       lo    cong         839.   0.524      1600.
##  8 P03    face       lo    incong       838.   0.438      1915.
##  9 P04    face       ffa   cong         843.   0.424      1988.
## 10 P04    face       ffa   incong       821.   0.516      1591.
## # … with 158 more rows
```
…
